\relax 
\providecommand\hyper@newdestlabel[2]{}
\providecommand\HyperFirstAtBeginDocument{\AtBeginDocument}
\HyperFirstAtBeginDocument{\ifx\hyper@anchor\@undefined
\global\let\oldcontentsline\contentsline
\gdef\contentsline#1#2#3#4{\oldcontentsline{#1}{#2}{#3}}
\global\let\oldnewlabel\newlabel
\gdef\newlabel#1#2{\newlabelxx{#1}#2}
\gdef\newlabelxx#1#2#3#4#5#6{\oldnewlabel{#1}{{#2}{#3}}}
\AtEndDocument{\ifx\hyper@anchor\@undefined
\let\contentsline\oldcontentsline
\let\newlabel\oldnewlabel
\fi}
\fi}
\global\let\hyper@last\relax 
\gdef\HyperFirstAtBeginDocument#1{#1}
\providecommand\HyField@AuxAddToFields[1]{}
\providecommand\HyField@AuxAddToCoFields[2]{}
\citation{WaPo}
\citation{EUbudget}
\citation{NPR}
\citation{OECDaggGraphic}
\citation{Cairns}
\@writefile{toc}{\contentsline {section}{\numberline {1}Introduction}{1}{section.1}}
\citation{WTOwto}
\citation{WTOboxes}
\citation{HartBabcock}
\citation{WTOboxes}
\citation{WTOhk}
\citation{Brookings}
\citation{Brookings}
\citation{Boysen2016}
\@writefile{toc}{\contentsline {section}{\numberline {2}Background}{2}{section.2}}
\@writefile{toc}{\contentsline {subsection}{\numberline {2.1}The Uruguay Round}{2}{subsection.2.1}}
\@writefile{toc}{\contentsline {subsection}{\numberline {2.2}The Hong Kong Declaration}{2}{subsection.2.2}}
\@writefile{toc}{\contentsline {section}{\numberline {3}Literature Review}{2}{section.3}}
\citation{Torayeh}
\citation{KirwanRoberts}
\citation{HelmingTabeau}
\citation{JamesEtAl}
\citation{DameNusser}
\citation{CastrisGennaro}
\citation{Cornia}
\citation{Atkin}
\citation{Lopez1989}
\citation{Beghin}
\citation{DemidovaRClare}
\citation{Moore}
\@writefile{toc}{\contentsline {section}{\numberline {4}Data}{3}{section.4}}
\citation{OECDhandbook}
\newlabel{wheatVsFlour}{{4}{4}{Data}{section.4}{}}
\newlabel{canolaVsOil}{{4}{5}{Data}{section.4}{}}
\citation{OECDmps}
\@writefile{toc}{\contentsline {section}{\numberline {5}Producer Support Estimate}{6}{section.5}}
\citation{Reuters}
\citation{Council}
\@writefile{toc}{\contentsline {subsection}{\numberline {5.1}FPSE}{8}{subsection.5.1}}
\citation{PindyckRubinfeld}
\citation{WTOboxes}
\citation{WTOboxes}
\@writefile{lof}{\contentsline {figure}{\numberline {1}{\ignorespaces Price support s moves equilibrium along D and S making a wedge, input/uncoupled support shifts S}}{9}{figure.1}}
\newlabel{domestic}{{1}{9}{Price support s moves equilibrium along D and S making a wedge, input/uncoupled support shifts S}{figure.1}{}}
\@writefile{toc}{\contentsline {section}{\numberline {6}Theoretical Model}{9}{section.6}}
\@writefile{lof}{\contentsline {figure}{\numberline {2}{\ignorespaces "Small" country is a price taker}}{10}{figure.2}}
\newlabel{smallCountry}{{2}{10}{"Small" country is a price taker}{figure.2}{}}
\@writefile{lof}{\contentsline {figure}{\numberline {3}{\ignorespaces Support in large country shifts world supply curve}}{11}{figure.3}}
\newlabel{largeCountry}{{3}{11}{Support in large country shifts world supply curve}{figure.3}{}}
\@writefile{toc}{\contentsline {section}{\numberline {7}Method}{12}{section.7}}
\@writefile{toc}{\contentsline {section}{\numberline {8}Empirical Results}{12}{section.8}}
\@writefile{lot}{\contentsline {table}{\numberline {1}{\ignorespaces Individual Crops Significantly Affected by Subsidies}}{13}{table.1}}
\newlabel{sigCrops}{{1}{13}{Individual Crops Significantly Affected by Subsidies}{table.1}{}}
\@writefile{lot}{\contentsline {table}{\numberline {2}{\ignorespaces Maize Comparison}}{14}{table.2}}
\newlabel{maizeReg}{{2}{14}{Maize Comparison}{table.2}{}}
\@writefile{lot}{\contentsline {table}{\numberline {3}{\ignorespaces Crops with No Observed Subsidy Effect}}{16}{table.3}}
\newlabel{insigCrops}{{3}{16}{Crops with No Observed Subsidy Effect}{table.3}{}}
\@writefile{lot}{\contentsline {table}{\numberline {4}{\ignorespaces Unaffected Crops Continued}}{17}{table.4}}
\newlabel{grapesTomato}{{4}{17}{Unaffected Crops Continued}{table.4}{}}
\@writefile{toc}{\contentsline {subsection}{\numberline {8.1}No Domestic Subsidy Assumption}{17}{subsection.8.1}}
\@writefile{toc}{\contentsline {section}{\numberline {9}Conclusion}{17}{section.9}}
\@writefile{lot}{\contentsline {table}{\numberline {5}{\ignorespaces Primary Production Specification}}{18}{table.5}}
\newlabel{firstResults}{{5}{18}{Primary Production Specification}{table.5}{}}
\@writefile{lot}{\contentsline {table}{\numberline {6}{\ignorespaces No Significant Domestic Subsidy Assumption}}{19}{table.6}}
\newlabel{assume}{{6}{19}{No Significant Domestic Subsidy Assumption}{table.6}{}}
\@writefile{lot}{\contentsline {table}{\numberline {7}{\ignorespaces Import and Exporter Regressions}}{19}{table.7}}
\newlabel{importExport}{{7}{19}{Import and Exporter Regressions}{table.7}{}}
\bibcite{Atkin}{1}
\bibcite{Reuters}{2}
\bibcite{NPR}{3}
\bibcite{Beghin}{4}
\bibcite{Boysen2016}{5}
\bibcite{Cairns}{6}
\bibcite{CastrisGennaro}{7}
\bibcite{WaPo}{8}
\bibcite{Cornia}{9}
\bibcite{DameNusser}{10}
\bibcite{DemidovaRClare}{11}
\bibcite{DeodharSheldon}{12}
\bibcite{JamesEtAl}{13}
\bibcite{HelmingTabeau}{14}
\bibcite{EUbudget}{15}
\bibcite{HartBabcock}{16}
\bibcite{KirwanRoberts}{17}
\bibcite{Lopez1989}{18}
\bibcite{Moore}{19}
\bibcite{OECDhandbook}{20}
\bibcite{OECDaggGraphic}{21}
\bibcite{OECDmps}{22}
\bibcite{Pick}{23}
\bibcite{PindyckRubinfeld}{24}
\bibcite{Council}{25}
\bibcite{Brookings}{26}
\bibcite{Torayeh}{27}
\bibcite{WTOwto}{WTO}
\bibcite{WTOboxes}{28}
\bibcite{WTOhk}{29}
\@writefile{toc}{\contentsline {section}{\numberline {10}Appendix}{22}{section.10}}
\@writefile{toc}{\contentsline {subsection}{\numberline {10.1}Robustness Checks}{22}{subsection.10.1}}
\@writefile{toc}{\contentsline {subsection}{\numberline {10.2}Own Share}{22}{subsection.10.2}}
\@writefile{toc}{\contentsline {subsection}{\numberline {10.3}Acreage Specification}{22}{subsection.10.3}}
\@writefile{lot}{\contentsline {table}{\numberline {8}{\ignorespaces Production with Lagged Yield and Subsidies}}{23}{table.8}}
\newlabel{prodLag}{{8}{23}{Production with Lagged Yield and Subsidies}{table.8}{}}
\@writefile{lot}{\contentsline {table}{\numberline {9}{\ignorespaces Own Share Comparison}}{24}{table.9}}
\newlabel{ownComparison}{{9}{24}{Own Share Comparison}{table.9}{}}
\@writefile{lot}{\contentsline {table}{\numberline {10}{\ignorespaces Area Specification}}{24}{table.10}}
\newlabel{area}{{10}{24}{Area Specification}{table.10}{}}
\@writefile{toc}{\contentsline {subsection}{\numberline {10.4}Decadal Change}{25}{subsection.10.4}}
\@writefile{lot}{\contentsline {table}{\numberline {11}{\ignorespaces 5 Year Difference}}{26}{table.11}}
\newlabel{5year}{{11}{26}{5 Year Difference}{table.11}{}}
\@writefile{lot}{\contentsline {table}{\numberline {12}{\ignorespaces 10 Year Difference}}{27}{table.12}}
\newlabel{10year}{{12}{27}{10 Year Difference}{table.12}{}}
