\relax 
\providecommand\hyper@newdestlabel[2]{}
\providecommand\HyperFirstAtBeginDocument{\AtBeginDocument}
\HyperFirstAtBeginDocument{\ifx\hyper@anchor\@undefined
\global\let\oldcontentsline\contentsline
\gdef\contentsline#1#2#3#4{\oldcontentsline{#1}{#2}{#3}}
\global\let\oldnewlabel\newlabel
\gdef\newlabel#1#2{\newlabelxx{#1}#2}
\gdef\newlabelxx#1#2#3#4#5#6{\oldnewlabel{#1}{{#2}{#3}}}
\AtEndDocument{\ifx\hyper@anchor\@undefined
\let\contentsline\oldcontentsline
\let\newlabel\oldnewlabel
\fi}
\fi}
\global\let\hyper@last\relax 
\gdef\HyperFirstAtBeginDocument#1{#1}
\providecommand\HyField@AuxAddToFields[1]{}
\providecommand\HyField@AuxAddToCoFields[2]{}
\@writefile{toc}{\contentsline {section}{\numberline {1}Subsidy Descriptive Statistics}{1}{section.1}}
\@writefile{toc}{\contentsline {section}{\numberline {2}Results with Constant FPSE Weight}{3}{section.2}}
\@writefile{lot}{\contentsline {table}{\numberline {1}{\ignorespaces }}{4}{table.1}}
\newlabel{}{{1}{4}{}{table.1}{}}
\@writefile{toc}{\contentsline {section}{\numberline {3}Plan Going Forward}{5}{section.3}}
