\relax 
\providecommand\hyper@newdestlabel[2]{}
\providecommand\HyperFirstAtBeginDocument{\AtBeginDocument}
\HyperFirstAtBeginDocument{\ifx\hyper@anchor\@undefined
\global\let\oldcontentsline\contentsline
\gdef\contentsline#1#2#3#4{\oldcontentsline{#1}{#2}{#3}}
\global\let\oldnewlabel\newlabel
\gdef\newlabel#1#2{\newlabelxx{#1}#2}
\gdef\newlabelxx#1#2#3#4#5#6{\oldnewlabel{#1}{{#2}{#3}}}
\AtEndDocument{\ifx\hyper@anchor\@undefined
\let\contentsline\oldcontentsline
\let\newlabel\oldnewlabel
\fi}
\fi}
\global\let\hyper@last\relax 
\gdef\HyperFirstAtBeginDocument#1{#1}
\providecommand\HyField@AuxAddToFields[1]{}
\providecommand\HyField@AuxAddToCoFields[2]{}
\@writefile{toc}{\contentsline {section}{\numberline {1}Lagged Yields and Lagged Subsidy Exposure}{1}{section.1}}
\@writefile{toc}{\contentsline {section}{\numberline {2}Individual Crop Regressions}{1}{section.2}}
\@writefile{lot}{\contentsline {table}{\numberline {1}{\ignorespaces Production with Lagged Yield and Subsidies}}{2}{table.1}}
\newlabel{prodLag}{{1}{2}{Production with Lagged Yield and Subsidies}{table.1}{}}
\@writefile{lot}{\contentsline {table}{\numberline {2}{\ignorespaces Own Share with Lagged Subsidies and Yield}}{3}{table.2}}
\newlabel{ownLag}{{2}{3}{Own Share with Lagged Subsidies and Yield}{table.2}{}}
\@writefile{toc}{\contentsline {section}{\numberline {3}Next Steps}{3}{section.3}}
\@writefile{lot}{\contentsline {table}{\numberline {3}{\ignorespaces Rapeseed(canola) Production and Own Market Share}}{4}{table.3}}
\newlabel{rapeseed1}{{3}{4}{Rapeseed(canola) Production and Own Market Share}{table.3}{}}
\@writefile{lot}{\contentsline {table}{\numberline {4}{\ignorespaces Maize Production and Own Share, Far Right Column Omitting Country Fixed Effects}}{5}{table.4}}
\newlabel{maizeReg}{{4}{5}{Maize Production and Own Share, Far Right Column Omitting Country Fixed Effects}{table.4}{}}
\@writefile{toc}{\contentsline {section}{\numberline {4}Possible Extensions}{6}{section.4}}
