\relax 
\providecommand\hyper@newdestlabel[2]{}
\providecommand\HyperFirstAtBeginDocument{\AtBeginDocument}
\HyperFirstAtBeginDocument{\ifx\hyper@anchor\@undefined
\global\let\oldcontentsline\contentsline
\gdef\contentsline#1#2#3#4{\oldcontentsline{#1}{#2}{#3}}
\global\let\oldnewlabel\newlabel
\gdef\newlabel#1#2{\newlabelxx{#1}#2}
\gdef\newlabelxx#1#2#3#4#5#6{\oldnewlabel{#1}{{#2}{#3}}}
\AtEndDocument{\ifx\hyper@anchor\@undefined
\let\contentsline\oldcontentsline
\let\newlabel\oldnewlabel
\fi}
\fi}
\global\let\hyper@last\relax 
\gdef\HyperFirstAtBeginDocument#1{#1}
\providecommand\HyField@AuxAddToFields[1]{}
\providecommand\HyField@AuxAddToCoFields[2]{}
\@writefile{toc}{\contentsline {section}{\numberline {1}Introduction}{1}{section.1}}
\@writefile{toc}{\contentsline {section}{\numberline {2}Model}{1}{section.2}}
\@writefile{toc}{\contentsline {subsection}{\numberline {2.1}Data}{2}{subsection.2.1}}
\@writefile{toc}{\contentsline {subsubsection}{\numberline {2.1.1}Producer Support Estimate}{2}{subsubsection.2.1.1}}
\@writefile{lot}{\contentsline {table}{\numberline {1}{\ignorespaces Raw Subsidy Data}}{3}{table.1}}
\newlabel{}{{1}{3}{Raw Subsidy Data}{table.1}{}}
\@writefile{lot}{\contentsline {table}{\numberline {2}{\ignorespaces Subsidy Data Integrated with COMTRADE Data}}{3}{table.2}}
\newlabel{}{{2}{3}{Subsidy Data Integrated with COMTRADE Data}{table.2}{}}
\@writefile{toc}{\contentsline {section}{\numberline {3}Preliminary Results}{4}{section.3}}
\@writefile{lot}{\contentsline {table}{\numberline {3}{\ignorespaces All Crop Regressions}}{5}{table.3}}
\newlabel{}{{3}{5}{All Crop Regressions}{table.3}{}}
\@writefile{lot}{\contentsline {table}{\numberline {4}{\ignorespaces Crop Specific Regressions}}{6}{table.4}}
\newlabel{}{{4}{6}{Crop Specific Regressions}{table.4}{}}
