Country,1986,1987,1988,1989,1990,1991,1992,1993,1994,1995,1996,1997,1998,1999,2000,2001,2002,2003,2004,2005,2006,2007,2008,2009,2010,2011,2012,2013,2014,2015,2016,2017
European Union,60.19,68.22,44.11,29.58,46.09,51.54,50.96,51.26,50,29.12,2.05,6.52,38.36,29.41,1.99,0.51,0.47,1.13,0,0,0,-0.01,0,0,0,0,0,0,0,0,0,0
United States,54.07,53.77,15.58,6.84,29.1,37.59,28.2,48.04,41.2,3.85,0.18,1.45,13.31,9.19,11.53,8.41,7.45,3,11.84,8.17,4.48,2.16,3.4,4.52,2.93,4.65,3.7,3.76,3.34,3.51,3.69,3.76
Brazil,0,0,0,0,0,0,0,0,0,0,0,0,0,0,0,0,0,0,0,0,0,0,0,0,0,0,0,0,0,0,0,0
Switzerland,76.28,82.17,78.17,69.51,67.6,77.23,69.78,69.09,68.32,70.19,50.8,52.62,57.13,58.43,63.2,49.82,53.75,57.01,45.63,44.6,49.78,26.41,2.99,35.4,41.73,15.01,22.7,8.67,16.46,37.03,28.67,39.43
China,,,,,,,,,,,,,,,,,,,,,,,,,,,,,,,,
Colombia,,,,,,,,,,,,,,,,,,,,,,,,,,,,,,,,
Costa Rica,,,,,,,,,,,,,,,,,,,,,,,,,,,,,,,,
Iceland,,,,,,,,,,,,,,,,,,,,,,,,,,,,,,,,
Israel,,,,,,,,,,,,,,,,,,,,,,,,,,,,,,,,
Japan,84.64,84.9,82.64,77.24,73.96,81.12,78.08,81.76,84.01,81.51,75.29,75.08,75.56,81.53,80.29,76.68,75.02,78.5,74.91,75.83,71.78,36.4,38.56,66.47,67.48,71.29,70.01,66.04,63.32,67.93,71.79,69.32
Kazakhstan,0,0,0,0,0,0,0,0,0,27.81,-8.62,-14.73,14.87,5.35,-8.52,-6.24,23.2,-157.02,-43.05,-20.73,7.5,-53.42,-33.87,36.64,-2.59,-19.07,-18.22,-7.78,-5.71,3.56,-19.58,11.31
"Korea, South",74.54,73.21,70.62,74.81,77.96,81.66,81.95,81.96,85.44,81.47,78.3,78.51,69.19,82.65,80.43,76.28,76.25,78.09,76.96,76.49,78.6,67.16,42.39,56.51,59.38,49.33,47.66,55.33,68.82,65.8,71.27,73.36
Mexico,9.4,3.64,-16.86,5.17,33.98,33.95,33.67,47.43,30.54,-20.12,7.93,15.88,22.85,19.19,14.56,19.12,10.56,13.03,20.19,14.67,8.84,0,28.39,0,10.82,0.47,0,4.04,4.56,5.38,1.89,3.8
Norway,83.8,87.21,78.34,71.87,78.44,76.97,75.09,74.18,74.1,60.71,43.97,52.55,69.37,64.88,47.56,47.33,56.27,54.49,48.46,53.8,48.96,16.07,28.97,57.36,46.74,32.61,27.27,42.59,48.49,43.67,53.11,49.2
New Zealand,0,0,0,0,0,0,0,0,0,0,0,0,0,0,0,0,0,0,0,0,0,0,0,0,0,0,0,0,0,0,0,0
Philippines,,,,,,,,,,,,,,,,,,,,,,,,,,,,,,,,
Russia,71.31,72.92,57.41,61.89,71.9,70.74,-11.91,-56.49,-58.63,-93.24,-13.18,-5.89,-23.58,-69.96,-11.25,-8.52,-19.65,-32.76,-9.62,-15.88,-11.95,-27.77,-13.94,-2.64,-14.21,-31.42,-22.38,-14.56,-21.9,-21.14,-2.19,-3.84
Turkey,30.23,39.19,0,2.75,30.85,36.92,32.45,45.93,14.78,0,14.05,24.82,49.94,41.45,22.28,2.89,4.13,22.07,26.68,33.81,23.13,0,18.45,45.08,35.47,9.45,10.21,20.72,25.9,23.76,34.09,14.53
Ukraine,90.57,93.57,66.99,62,86.36,75.55,-116.33,25.13,4.96,-29.77,-5.37,0.19,14.95,-27.22,-12.15,-18.71,-24.41,1.76,-9.67,-12.6,0.22,-25.89,-32.72,-25.01,-4.47,-42.84,-36.07,-26.35,-41.43,-43.13,-26.32,-20.25
Vietnam,,,,,,,,,,,,,,,,,,,,,,,,,,,,,,,,
South Africa,,,,,,,,,,,,,,,,,,,,,,,,,,,,,,,,
Indonesia,,,,,,,,,,,,,,,,,,,,,,,,,,,,,,,,