Country,1986,1987,1988,1989,1990,1991,1992,1993,1994,1995,1996,1997,1998,1999,2000,2001,2002,2003,2004,2005,2006,2007,2008,2009,2010,2011,2012,2013,2014,2015,2016,2017
European Union,-12.66,-5.89,14.33,7.44,4.25,9.92,-8.57,3.15,5,3.65,7.94,4.42,0.93,20.42,12.9,12.95,9.61,12.33,13.94,5.75,5.1,-1.53,0.25,0.37,1.74,0.07,0.07,1.73,-0.12,0.01,-0.65,-0.37
United States,-0.9,-0.89,-0.19,-0.1,-0.54,-0.69,-0.45,3.56,4.15,-0.05,0,0,1.38,0,0,0,0,0,0,0,0,0,0,0,0,0,0,0,0,0,0,0
Brazil,0,0,0,0,0,0,0,0,0,1.16,1.75,1.34,-2.05,1.77,-4.6,0.5,0.88,0.22,0.6,-3.53,0.01,-0.27,-0.47,0.36,9.84,0.67,0.49,0.38,0.61,0.63,-1.7,0
Switzerland,32.86,50.07,51.39,31.47,43.63,46.17,24.37,44.97,50.06,35.4,42.35,40.44,52.46,55.41,53.12,49.61,55.19,60.35,58.29,47.95,42.19,42.19,49.62,45.61,47.1,44.27,36.78,52.05,52.35,49.22,52.8,46.86
China,0,0,0,0,0,0,0,4.74,0.1,-2.69,4.9,0.32,-0.48,0.09,-1.76,-1.53,-2.23,-2.23,-0.55,-1.12,-1.58,-0.28,15.58,13.66,12.48,13.79,10.91,10.3,10.01,10.51,11.56,12.81
Colombia,0,0,0,0,0,0,-3.78,-21.82,-1.33,17.8,-8.77,1.1,42.48,36.47,2.44,-1,20.78,4.54,3.08,19.21,20.15,35.14,51.97,48.95,43.85,33.61,35.34,34.21,25.93,19.24,30.51,23.31
Costa Rica,0,0,0,0,0,0,0,0,0,33.77,33.77,33.77,33.77,33.77,33.33,32.89,32.43,31.97,31.51,31.51,31.51,31.51,31.51,31.51,31.51,31.51,31.51,31.51,31.51,31.51,31.51,31.51
Iceland,67.63,74.74,80.69,70.44,69.9,75.72,66.63,74.89,70.83,58.68,45.37,47.03,68.17,72.33,56.11,43.14,41.92,35.13,50.19,58.84,57.72,58.22,30.79,9,21.41,30.06,33.47,35.91,43.41,44.59,50.36,46.99
Israel,,,,,,,,,,,,,,,,,,,,,,,,,,,,,,,,
Japan,34.92,38.54,50.9,42.38,26.99,42.51,53.33,51.4,58,59.86,49.89,41.8,49.68,55.03,47.2,44.12,55.54,48.91,61.33,61.81,61.8,63.19,70.33,72.47,67.37,65.9,68.33,60.32,55.32,64.92,69.92,66.98
Kazakhstan,0,0,0,0,0,0,0,0,0,-0.68,2.29,2.24,21.03,47.64,1.14,1.04,1.83,35.75,7.65,5.31,8.71,18.44,22.54,13.85,30.37,26.84,38.11,27.12,14,23.51,9.85,4.82
"Korea, South",35.76,20.55,40.44,35.59,47.76,53.78,42.35,39.52,50.54,49.37,40.35,28.89,24.33,46.75,24.28,4.09,27.6,14.83,50.98,61.98,65.27,63.03,64.08,67.52,57.99,63.93,52.32,50.72,49.86,70.2,69.41,69.66
Mexico,-133.64,-50.38,-0.75,-4.34,-20.54,-0.94,6.27,-3.56,9.78,-33.61,-13.95,-5.36,2.69,13.18,2.93,4.33,19.47,10,-0.52,0.52,2.84,2.28,8.24,10.24,2.72,-0.1,0.73,0.89,0.84,0.35,0.27,0.34
Norway,35.28,46.78,56.8,48.57,49.65,53.13,37.58,40.55,42.59,35.36,34.58,30.63,48.85,49.47,33.44,33.99,49.01,52.41,45.14,37.87,36.46,44.74,42.65,37,47.52,46.22,45.41,39.37,42.44,44.7,43.39,38.23
New Zealand,3.51,1.16,0,0,0,0,0,0,0,0,0,0,0,0,0,0,0,0,0,0,0,0,0,0,0,0,0,0,0,0,0,0
Philippines,0,0,0,0,0,0,0,0,0,0,0,0,0,0,19.97,20.57,26.85,19.34,27.57,30.44,16.74,21.54,17.57,21.71,28.59,25.2,25.07,21.28,22.91,31.09,19.85,19.82
Russia,59.21,55.18,66.51,55.23,34.81,10.19,-502.57,-44.5,-14.53,10.79,8.41,25.63,35.88,22.67,-26.06,29.01,33.53,45.44,27.48,41.22,38.71,38.24,61.28,49.74,55.42,40.36,35.04,12.58,43.52,24.13,17.96,15.86
Turkey,,,,,,,,,,,,,,,,,,,,,,,,,,,,,,,,
Ukraine,31.56,35.13,48.31,44.69,13.32,26.54,-316.61,-82.86,-72.96,-94.34,-63.68,-22.09,7.96,-1.07,-18.81,10.52,-14.3,-68.41,-0.17,29.72,9.29,8.92,39.11,14.87,12.55,15.79,23.85,25.64,10.54,10.99,7.11,4.74
Vietnam,0,0,0,0,0,0,0,0,0,0,0,0,0,0,-4.88,-2.35,1.45,-2.37,-3.63,-4.37,-1.89,0.02,-2.86,-4.02,-4.88,-1.32,-3.14,0.23,-2.74,-7,-7.98,-6.44
South Africa,0,0,0,0,0,0,0,0,6.33,-8.46,-0.06,-0.02,0,-0.1,-0.09,-0.56,-3.03,14.17,10.59,-0.27,0,0,0,0,0,0,0,-0.06,-0.11,0,0,0
Indonesia,0,0,0,0,21.62,1.98,4.73,-1.71,-6.54,-1.87,4.95,-1.91,54.18,-3.27,0.3,0.68,-2.14,-3.76,-6.2,-6.15,-9.67,-7.68,6.34,-9.05,-15.44,-8.36,-9.91,-4.97,-14.01,-11.43,0,