Country,1986,1987,1988,1989,1990,1991,1992,1993,1994,1995,1996,1997,1998,1999,2000,2001,2002,2003,2004,2005,2006,2007,2008,2009,2010,2011,2012,2013,2014,2015,2016,2017
European Union,60.48,59.2,54.89,60.2,60.98,49.36,0.16,0.14,0.15,0.14,0.29,0.2,0.22,0.19,0.89,0.62,0.22,0.23,0.12,0.07,0.06,0.03,0.04,0.05,0.04,0.02,0,0,0,0,0,0
United States,,,,,,,,,,,,,,,,,,,,,,,,,,,,,,,,
Brazil,,,,,,,,,,,,,,,,,,,,,,,,,,,,,,,,
Switzerland,81.11,87.82,82.92,81.47,86.17,86.03,85.6,80.73,75.77,79.41,77.41,73.6,72.41,79.36,76.32,72.18,71.74,69.79,70.09,74.4,69.04,59.21,58.1,61.43,38.93,36.62,34.41,40.91,45.07,45.24,46.55,43.32
China,0,0,0,0,0,0,0,35.45,16.11,17.33,18.4,10.81,14.55,15.7,0.79,5.78,-0.83,7.19,8.52,1.35,9.06,1.89,24.87,23.8,19.4,13.65,17.61,26.33,38.67,41.21,42.53,35.95
Colombia,,,,,,,,,,,,,,,,,,,,,,,,,,,,,,,,
Costa Rica,,,,,,,,,,,,,,,,,,,,,,,,,,,,,,,,
Iceland,,,,,,,,,,,,,,,,,,,,,,,,,,,,,,,,
Israel,,,,,,,,,,,,,,,,,,,,,,,,,,,,,,,,
Japan,,,,,,,,,,,,,,,,,,,,,,,,,,,,,,,,
Kazakhstan,,,,,,,,,,,,,,,,,,,,,,,,,,,,,,,,
"Korea, South",,,,,,,,,,,,,,,,,,,,,,,,,,,,,,,,
Mexico,,,,,,,,,,,,,,,,,,,,,,,,,,,,,,,,
Norway,,,,,,,,,,,,,,,,,,,,,,,,,,,,,,,,
New Zealand,,,,,,,,,,,,,,,,,,,,,,,,,,,,,,,,
Philippines,,,,,,,,,,,,,,,,,,,,,,,,,,,,,,,,
Russia,,,,,,,,,,,,,,,,,,,,,,,,,,,,,,,,
Turkey,,,,,,,,,,,,,,,,,,,,,,,,,,,,,,,,
Ukraine,,,,,,,,,,,,,,,,,,,,,,,,,,,,,,,,
Vietnam,,,,,,,,,,,,,,,,,,,,,,,,,,,,,,,,
South Africa,,,,,,,,,,,,,,,,,,,,,,,,,,,,,,,,
Indonesia,,,,,,,,,,,,,,,,,,,,,,,,,,,,,,,,