Country,1986,1987,1988,1989,1990,1991,1992,1993,1994,1995,1996,1997,1998,1999,2000,2001,2002,2003,2004,2005,2006,2007,2008,2009,2010,2011,2012,2013,2014,2015,2016,2017
European Union,61.97,61.26,53.31,34.86,44.93,55.02,62.12,54.43,47.37,46.87,51,51.29,56.39,61.36,55.36,52.57,52.98,64.79,65.44,56.66,32.43,48.43,44.52,17.07,2.35,1.03,1.52,20.5,26.57,22.54,5.37,7.49
United States,58.44,62.07,47.09,36.83,34.82,48.06,45.95,49.67,35.46,38.22,36.14,35.51,47.47,67.06,49.65,55.34,52.55,59.5,54.23,44.39,21.42,34.82,33.6,21.28,34.98,28.98,17.55,7.64,46.15,55.17,50.56,56.07
Brazil,0,0,0,0,0,0,0,0,0,-214.68,-169.96,-141.39,-101.79,-158.2,3.74,2.63,1.02,1.04,0.96,0.52,0.87,0.91,1.03,0.82,1.52,0.61,0.74,0.93,0.89,0.59,0.56,0.21
Switzerland,73.42,72.45,72.72,68.36,65.35,69.48,73.76,71.1,71.01,73.47,70.97,69.82,66.13,68.48,73.68,69.61,69.21,72.45,73.61,71.49,59.25,55.3,48.47,46.19,38.96,24.87,26.58,39.79,40.98,35.03,34.06,28.74
China,0,0,0,0,0,0,0,-24.83,5.7,15.11,14.78,23.45,6.91,24.41,47.27,2.03,21.5,-2.13,19.01,34.13,-13.31,25.59,-0.18,49.72,26.55,12.36,21.21,42.22,38.8,55.24,55.47,44.1
Colombia,0,0,0,0,0,0,28.88,42.93,31.9,50.06,44.19,48.22,47.39,56.37,61.73,49.09,58.15,48.89,45.41,42.45,27.38,27.88,30.25,30.38,34.2,18.41,17.83,23.86,30.48,36.76,16.65,7.19
Costa Rica,0,0,0,0,0,0,0,0,0,0,0,0,0,23.02,10.22,0.09,16.82,0,22.18,19,17.33,0,0,0,0,0,7.11,25.19,22.18,31.01,35.66,27.49
Iceland,,,,,,,,,,,,,,,,,,,,,,,,,,,,,,,,
Israel,,,,,,,,,,,,,,,,,,,,,,,,,,,,,,,,
Japan,68.23,65.69,61.35,53.78,60.22,60.92,62.18,62.63,60.41,59.7,58.8,57.38,63.68,66.03,60.06,60.27,59.46,63.57,60.03,53.75,53.53,60.15,61.59,54.62,53.79,55.04,56.24,57.74,57.16,56.99,58.15,57.42
Kazakhstan,,,,,,,,,,,,,,,,,,,,,,,,,,,,,,,,
"Korea, South",,,,,,,,,,,,,,,,,,,,,,,,,,,,,,,,
Mexico,25.02,4,-10.36,1.06,26.46,54.33,52.36,61.61,41.37,-5.62,33.81,35.85,44.41,64.31,60.08,54.22,60.27,59.51,51.86,45.35,17.33,38.63,28.88,0.18,14.31,3.74,21.89,0,10.58,21.27,9.41,33.66
Norway,,,,,,,,,,,,,,,,,,,,,,,,,,,,,,,,
New Zealand,,,,,,,,,,,,,,,,,,,,,,,,,,,,,,,,
Philippines,0,0,0,0,0,0,0,0,0,0,0,0,0,0,2.65,-5.58,-9.43,-27.96,0.89,19.02,30.73,41.02,45.99,43.79,63.21,28.69,34.5,31.24,42.52,28.32,33.65,48.58
Russia,89.98,89.29,87.44,82.66,75.97,68.34,-3.61,32.96,15.22,25.46,26.65,41.92,48.79,-39.24,-31.48,-3.05,13.57,10.99,15.14,37.18,23.67,33,46.31,40.85,5.93,0,0,13.82,38.96,28.61,14.81,32.31
Turkey,17.77,17.03,2.95,4.49,17.92,36.48,39.75,35.39,2.81,29.92,31.87,54.77,55.56,65.08,54.96,28.09,47.9,60.55,63.35,56.25,24.62,51.33,51.02,23.82,1.85,0.88,6.51,18.77,28.52,40.5,7.5,5.95
Ukraine,88.66,88.24,89.32,72.37,55.46,75.9,-55.23,16.39,13.96,-50.03,19.35,26.61,12.73,7.26,21.28,50.85,32.66,40.36,32.18,35.73,10.07,43.9,67.58,45.82,31.65,15.05,30.75,71.07,51.53,23.2,-42.22,-21.8
Vietnam,0,0,0,0,0,0,0,0,0,0,0,0,0,0,29.51,12.34,3.43,16.81,25.6,31.18,40.69,34.79,39.51,37.94,40.7,36.88,35.7,41.89,27.96,48.76,62.84,65.84
South Africa,0,0,0,0,0,0,0,0,28.21,38.84,20.89,22.3,27.31,39.73,19.48,16.1,25.35,38.46,42.91,28.77,16.89,41.49,29.13,5.37,10.97,8.33,21.6,24.48,28.17,41.92,15.81,19.32
Indonesia,0,0,0,0,-28.82,-10.31,13.5,37.41,11.58,-35.43,-23.89,3.28,-210.56,-5.83,54.47,60.69,35.68,59.58,53.07,30.97,20.65,27.66,37.62,27.5,21.23,-2.01,31.24,57.95,39.69,43.58,0,