Country,1986,1987,1988,1989,1990,1991,1992,1993,1994,1995,1996,1997,1998,1999,2000,2001,2002,2003,2004,2005,2006,2007,2008,2009,2010,2011,2012,2013,2014,2015,2016,2017
European Union,,,,,,,,,,,,,,,,,,,,,,,,,,,,,,,,
United States,64.71,54.31,24.48,29.26,60.32,74.69,69.76,77.58,59.58,37.03,0.85,0.71,0.99,52.24,81.91,1.68,24.44,18.44,18.12,6.61,23.85,17.25,13.66,22.02,15.06,2.37,0.39,0.41,0.73,0.41,0.41,0.41
Brazil,,,,,,,,,,,,,,,,,,,,,,,,,,,,,,,,
Switzerland,,,,,,,,,,,,,,,,,,,,,,,,,,,,,,,,
China,,,,,,,,,,,,,,,,,,,,,,,,,,,,,,,,
Colombia,,,,,,,,,,,,,,,,,,,,,,,,,,,,,,,,
Costa Rica,,,,,,,,,,,,,,,,,,,,,,,,,,,,,,,,
Iceland,28.03,16.62,2.21,-8.88,24.15,41.11,49.79,49.31,20.82,27.93,59.67,56.21,68.05,64.91,58.57,60.55,46.46,51.4,52.28,60.06,61.14,61.72,44.94,46.99,25.24,9.32,18.81,71.92,69.59,69.04,69.23,69.42
Israel,,,,,,,,,,,,,,,,,,,,,,,,,,,,,,,,
Japan,,,,,,,,,,,,,,,,,,,,,,,,,,,,,,,,
Kazakhstan,,,,,,,,,,,,,,,,,,,,,,,,,,,,,,,,
"Korea, South",,,,,,,,,,,,,,,,,,,,,,,,,,,,,,,,
Mexico,,,,,,,,,,,,,,,,,,,,,,,,,,,,,,,,
Norway,59.45,47.64,39.01,50.37,68.81,76.76,78.1,77.89,67.41,67.21,67.46,64.4,69.38,70.19,62.67,61.93,68.34,68.92,64.28,66.64,68.99,67.22,70.53,70,61.43,53.25,58.3,56.07,50.43,47.18,57.05,60.89
New Zealand,0,0,0,0,0,0,0,0,0,0,0,0,0,0,0,0,0,0,0,0,0,0,0,0,0,0,0,0,0,0,0,0
Philippines,,,,,,,,,,,,,,,,,,,,,,,,,,,,,,,,
Russia,,,,,,,,,,,,,,,,,,,,,,,,,,,,,,,,
Turkey,,,,,,,,,,,,,,,,,,,,,,,,,,,,,,,,
Ukraine,,,,,,,,,,,,,,,,,,,,,,,,,,,,,,,,
Vietnam,,,,,,,,,,,,,,,,,,,,,,,,,,,,,,,,
South Africa,,,,,,,,,,,,,,,,,,,,,,,,,,,,,,,,
Indonesia,,,,,,,,,,,,,,,,,,,,,,,,,,,,,,,,