\relax 
\@writefile{toc}{\contentsline {section}{\numberline {1}Old Model}{1}}
\@writefile{toc}{\contentsline {section}{\numberline {2}New Model: Production Function}{1}}
\@writefile{toc}{\contentsline {section}{\numberline {3}Next Empirical Step}{2}}
